RHCP - American Ghost Dance

G |----------------|----------------|
D |----------------|----------------|
A |----------454---|----------------|
E |0-----0------653|0-----0---------|

G |----------------|----------------|
D |----------------|----------------|
A |---------4-54---|----------------|
E |0-----0------653|0-----0---------|

https://www.youtube.com/watch?v=fG9BAP96RZY