Atoms For Peace - Default

Couplet/Thema

G |----------------------|
D |-4--5674-44--5677-456-|
A |----------------------|
E |----------------------|

G |----------------------|
D |-4--5674-56--7456-745-|
A |----------------------|
E |----------------------|

Refrein

G |-------------------------|
D |-44-x4-4-44-x4-4-55-x5-5-|
A |-------------------------|
E |-------------------------|

G |-----------------|
D |-----------------|
A |-55-x5-5-77-x7-7-|
E |-----------------|

G |-------------------------|
D |-------------------------|
A |-------------------------|
E |-77-x7-7-77-x7-7-77-x7-7-|

C-stuk

G |-------------------------|
D |-----------------55-x5-5-|
A |-77-x7-7-55-x5-5---------|
E |-------------------------|

G |-----------------|
D |-----------------|
A |-----------------|
E |-77-x7-7-77-x7-7-|

Let op je vingerzetting: hou het hele nummer door je hand in dezelfde positie.

https://www.youtube.com/watch?v=yxWBd840E9g

https://www.youtube.com/watch?v=Co-fHs62BbA
