Snoop Dogg - Gin & Juice

G |----------------|----------------|
D |----------------|----------------|
A |----------------|----------2-----|
E |1-----4-----2---|----------------|

   1   2   3   4    1   2   3   4 
   1 2 3 1 2 3 1 2  3 4 5 6 7 1 2 3

   1 2 3 4 5 6 7 8  1 2 3 4 5 6 7 8
