Donna Summer - I feel love

Part 1:

G |———5—5———3—3|
D |——————5—5———|
A |3—3—————————|
E |————————————|

Part 2:

G |———8—8———6—6|
D |——————8—8———|
A |6—6—————————|
E |————————————|

Part 3:

G |———10—10————8—8|
D |———————10—10———|
A |8—8————————————|
E |———————————————|

Part 4:

G |————12—12————10—10|
D |————————12—12—————|
A |10—10—————————————|
E |——————————————————|

Part 1 x 24
Part 2 x 8
Part 3 x 8
Part 4 x 16
Part 1 x 2
Part 2 x 2
Part 3 x 2
Part 4 x 2
Part 1 x 2
Part 2 x 2
Part 3 x 2
Part 4 x 2
