Joe Smooth - Promised Land

Intro/Chorus

G |----------------|--4-------4-----|--6-------------|----------------|
D |--4-------4-----|----------------|----------6-----|--7-------------|
A |---------------2|----2--2----3~-4|----4-----------|----------7-----|
E |2---2--2----2~--|----------------|-------4----4~-5|----5--0----0~1-|

Verse

G |----------------|----------------|----------------|----------------|
D |--6-------6-----|--4-------4-----|--3-------------|--7-----------7-|
A |----------------|----------------|----------------|----------------|
E |4---4--4----4~-2|----2--2----4~-1|----1--1--4-2-5-|----5-4---0-----|

Bridge

G |----------------|----------------|----------------|----------------|
D |----------------|----------------|----------------|--------------2-|
A |4-----------4--2|------------2--1|------------1--0|----------------|
E |----------------|----------------|----------------|------4---0-----|

Second bridge

G |----------------|----------------|
D |--------4---7---|6-------4-------|
A |4---7-----------|----7-------6---|
E |----------------|----------------|

Second bridge, last two measures

G |----------------|----------------|
D |------------3---|4---5---6-------|
A |4---6---7-------|------------7---|
E |----------------|----------------|
